{
	"jquery" : true,
	"theme_settings_pages": {
		"header": {
			"page_title": "Theme Header Settings",
			"menu_title": "Header"
		},
		"footer": {
			"page_title": "Theme Footer Settings",
			"menu_title": "Footer"
		},
		"woocommerce": {
			"page_title": "Theme Shop Settings",
			"menu_title": "Woocommerce"
		}
	},
	"gutenberg_categories": [
		[
			"theme_blocks",
			"Theme Blocks",
			"star-filled"
		]
	],
	"menus": {
		"navigation": "Navigation",
		"foot_navigation": "Footer",
		"shop_navigation": "Shop"
	},
	"register_scripts": {
		"swiper": "/assets/js/plugins/swiper-navigation-pagination.min.js"
	},
	"thumbnails": [
		[
			"example-thumbnail",
			400,
			300,
			["center", "center"]
		]
	]
}
