<svg width="822" height="769" viewBox="0 0 822 769" fill="none" xmlns="http://www.w3.org/2000/svg">
<path fill-rule="evenodd" clip-rule="evenodd" d="M288.269 592.49C299.813 619.574 330.045 628.848 366.052 614.292C374.36 612.065 384.081 607.405 394.732 601.193C412.351 618.336 438.835 627.661 467.339 618.475C495.521 611.75 521.448 594.072 545.846 573.508H570.661C573.603 577.611 576.575 581.215 579.466 584.38V753.66C579.225 758.451 579.591 764.194 580.835 768.377C580.55 761.066 583.302 754.121 586.479 748.253C588.331 744.964 590.176 741.572 591.178 737.638C591.061 737.535 590.82 737.337 590.703 737.242C590.783 735.616 591.032 733.99 590.959 732.363C590.71 726.576 590.22 720.341 585.857 714.825C591.31 725.836 588.075 727.506 581.333 744.517L582.504 721.623L588.807 708.019V658.408C589.473 658.269 590.154 658.144 590.834 658.027C593.118 657.654 595.417 657.412 597.737 657.441C599.355 657.492 600.98 657.551 602.605 657.712C605.994 658.027 609.391 658.635 612.773 659.507C614.573 659.976 616.367 660.511 618.153 661.148C618.797 661.39 619.441 661.602 620.078 661.925C622.523 663.126 624.924 664.621 627.222 666.525C628.891 667.91 630.502 669.522 631.98 671.426C633.166 672.987 634.308 674.708 635.15 676.76C635.538 677.609 635.889 678.496 636.175 679.426C636.768 681.338 637.068 683.433 637.024 685.477C636.98 687.924 636.475 690.239 635.728 692.268C635.267 693.507 634.732 694.664 634.096 695.675C633.203 696.986 632.17 698.063 631.058 698.906C628.759 700.635 626.146 701.309 623.526 701.279C621.761 701.25 619.968 700.942 618.219 700.283C617.977 700.166 617.735 700.188 617.494 700.188C616.894 700.159 616.308 700.342 615.715 700.422L615.883 700.561C616.301 700.745 616.696 701.038 617.106 701.243C621.688 703.807 626.571 704.701 631.19 703.624C632.551 703.301 633.891 702.825 635.164 702.085C635.457 701.961 635.772 701.924 636.072 701.836C638.824 701.126 641.569 700.386 644.322 699.653C644.402 699.631 644.483 699.572 644.549 699.484C645.566 698.019 646.379 696.224 647.016 694.276L647.257 693.455C647.411 692.818 647.572 692.195 647.696 691.536C647.945 690.232 648.084 688.855 648.062 687.455C648.04 685.595 647.726 683.712 647.184 681.99C646.562 679.99 645.654 678.217 644.644 676.642C643.231 674.467 641.613 672.664 639.937 671.075C639.571 670.723 639.198 670.423 638.846 670.027L637.251 668.694C637.031 668.584 636.826 668.423 636.621 668.262C635.216 667.192 633.788 666.225 632.346 665.331C628.679 663.075 624.931 661.287 621.154 659.807C618.028 658.599 614.873 657.58 611.711 656.87C610.254 656.555 608.79 656.276 607.334 656.232C605.291 656.049 603.249 655.932 601.214 655.903C598.337 655.866 595.468 655.983 592.621 656.335C625.143 649.61 641.138 630.284 647.747 619.456C655.258 620.856 662.607 621.559 669.744 621.588V729.074C669.305 734.158 669.598 740.832 670.996 745.542C670.71 738.231 673.463 731.286 676.64 725.418C678.492 722.129 680.336 718.73 681.339 714.803C681.222 714.7 680.98 714.503 680.863 714.407C680.944 712.781 681.193 711.155 681.119 709.528C680.9 704.422 680.49 698.964 677.401 693.953L679.092 690.833L679.077 621.251C711.183 618.651 737.915 601.845 752.577 573.523H804.571L812.667 563.801L812.704 563.765C810.786 563.56 808.912 563.237 807.097 562.812C805.252 562.373 803.459 561.838 801.775 561.106C800.611 560.571 799.447 560.029 798.335 559.413C796 558.139 793.796 556.659 791.717 554.996C790.619 554.109 789.551 553.172 788.533 552.161C788.174 551.794 787.794 551.443 787.486 551.01C786.257 549.391 785.181 547.582 784.383 545.509C783.804 544 783.365 542.344 783.168 540.527C783.014 539.04 782.977 537.458 783.314 535.721C783.424 534.996 783.57 534.249 783.797 533.487C784.251 531.934 784.997 530.337 785.971 528.879C787.135 527.135 788.57 525.633 790.056 524.403C790.963 523.656 791.893 522.996 792.823 522.461C794.082 521.795 795.341 521.341 796.541 521.084C799.023 520.557 801.248 520.872 803.151 521.7C804.432 522.264 805.596 523.033 806.577 524.051C806.701 524.212 806.892 524.271 807.067 524.344C807.492 524.557 808.004 524.601 808.473 524.725L808.414 524.579C808.195 524.322 808.041 523.992 807.836 523.714C805.662 520.461 802.5 518.315 798.62 517.663C797.478 517.472 796.27 517.407 794.997 517.546C794.726 517.546 794.477 517.472 794.213 517.443C791.871 517.106 789.514 516.791 787.164 516.469C787.091 516.461 787.011 516.476 786.923 516.52C785.495 517.26 784.075 518.293 782.706 519.502L782.15 520.015C781.747 520.425 781.338 520.82 780.942 521.253C780.159 522.11 779.42 523.055 778.79 524.066C777.948 525.406 777.304 526.857 776.909 528.256C776.44 529.883 776.279 531.436 776.301 532.879C776.331 534.879 776.682 536.666 777.172 538.329C777.275 538.696 777.414 539.025 777.487 539.414L778.044 540.864C778.153 541.011 778.234 541.186 778.307 541.37C778.841 542.571 779.442 543.707 780.086 544.791C781.725 547.538 783.651 549.977 785.73 552.205C787.457 554.036 789.302 555.743 791.285 557.223C792.208 557.897 793.152 558.549 794.199 559.025C795.612 559.787 797.046 560.497 798.525 561.149C801.365 562.395 804.337 563.421 807.477 564.102C807.777 564.168 808.078 564.226 808.378 564.285H756.75C762.379 549.941 765.234 533.164 764.611 514.212C761.815 475.458 735.668 443.701 735.668 443.701C731.979 437.855 720.194 425.987 707.113 413.606L707.135 390.537C731.415 402.683 759.348 414.023 780.972 426.617C818.201 445.188 828.5 477.729 799.791 499.832L802.8 498.66C827.109 480.22 828.654 453.964 805.347 433.452C790.707 415.972 744.606 397.906 707.149 378.881L707.23 301.292L697.597 303.351C691.302 304.516 685.087 306.032 679.004 307.849L678.975 165.477C680.3 169.338 682.1 172.855 683.894 176.291C688 184.444 691.558 194.107 691.184 204.275C694.025 194.005 693.322 176.979 691.023 172.378C681.983 147.507 677.525 145.383 684.699 129.793C679.297 137.163 678.492 145.441 678.147 153.207L669.744 161.258V310.882C655.485 315.952 642.111 322.596 630.245 330.076V305.497C632.903 303.878 635.311 302.179 637.463 300.413L637.375 300.618C638.268 299.849 639.117 299.051 639.937 298.245C642.265 296.069 644.219 293.798 645.786 291.461C661.875 269.483 659.218 240.553 659.218 240.553C652.432 186.217 614.91 178.627 614.91 178.627C604.581 177.8 595.944 179.631 588.756 182.942L588.734 56.7025C589.927 59.6695 591.354 62.4533 592.782 65.1785C596.888 73.3323 600.446 82.9951 600.072 93.1635C602.912 82.8926 602.21 65.8672 599.911 61.2665C593.418 43.3986 589.29 37.2742 590.139 29.4574L591.442 26.952L591.391 25.8458L590.629 26.6956C591.193 24.3659 592.159 21.7945 593.587 18.6884C591.222 21.9044 589.744 25.3036 588.792 28.7468L579.503 39.1349V188.517C572.425 193.887 567.315 200.591 563.772 206.539C526.997 184.964 499.796 163.25 541.271 146.401L539.199 146.518C536.725 147.632 511.866 155.214 518.03 179.997C522.846 192.495 539.507 204.136 559.19 215.535C557.675 219.074 557.023 221.381 557.023 221.381C543.847 260.135 564.212 295.695 564.212 295.695C568.545 303.607 573.94 311.021 579.503 317.615V348.361C545.692 305.981 487.564 245.139 487.564 245.139C456.827 214.773 425.293 159.646 425.293 159.646C390.559 86.5335 428.089 38.1899 428.089 38.1899C493.932 -41.2082 579.671 85.7717 565.829 154.694C566.122 153.001 566.356 151.287 566.539 149.573C566.993 145.258 567.154 140.862 566.832 136.408C566.7 134.65 566.495 132.885 566.181 131.112C566.129 130.848 566.078 130.584 566.086 130.328L565.617 128.269C565.419 127.786 565.324 127.302 565.171 126.819C564.504 124.592 563.611 122.35 562.264 120.196C561.291 118.65 560.068 117.141 558.509 115.844C557.162 114.724 555.559 113.779 553.839 113.134C552.543 112.643 551.189 112.328 549.85 112.145C549.176 112.05 548.517 112.006 547.844 111.947L546.958 111.918C544.828 111.91 542.757 112.138 540.89 112.68C540.78 112.716 540.685 112.775 540.627 112.848C538.606 115.39 536.579 117.918 534.573 120.467C534.339 120.738 534.156 121.046 533.899 121.302C532.589 122.343 531.491 123.537 530.525 124.811C527.268 129.126 525.73 134.364 525.891 139.851C525.891 140.335 525.965 140.833 525.935 141.317L525.987 141.529C526.345 140.958 526.806 140.43 527.07 139.808C527.187 139.566 527.326 139.324 527.333 139.038C527.568 137.046 528.153 135.134 528.988 133.331C530.239 130.672 532.143 128.255 534.873 126.504C536.198 125.654 537.706 124.973 539.367 124.504C540.619 124.196 541.966 124.042 543.342 123.984C545.604 123.903 548.012 124.167 550.311 124.936C552.236 125.573 554.051 126.577 555.545 127.808C556.277 128.408 556.935 129.06 557.536 129.734C559.044 131.266 560.105 132.994 560.976 134.716C562.03 136.841 562.755 139.009 563.238 141.163C563.904 144.122 564.116 147.053 564.058 149.925C564.058 150.672 563.933 151.397 563.846 152.13C563.575 154.152 563.194 156.144 562.755 158.115C561.92 161.822 560.837 165.463 559.483 168.994C558.839 170.694 558.107 172.349 557.36 174.012C556.255 176.364 554.908 178.613 553.451 180.796C552.002 182.942 550.443 185.03 548.752 187.045H548.862C549.352 187.001 549.85 186.957 550.34 186.913C550.494 186.913 550.604 186.84 550.677 186.752C551.877 185.411 552.939 183.99 553.949 182.54C556.474 178.884 558.604 175.016 560.464 171.038C561.43 168.972 562.308 166.862 563.136 164.738C563.802 163.25 564.263 161.675 564.673 160.093C564.863 159.353 565.039 158.606 565.2 157.859C584.342 101.207 551.907 54.4388 531.067 28.1901C473.18 -34.5343 430.073 27.3915 430.073 27.3915C378.979 102.504 422.489 174.012 422.489 174.012C438.454 209.169 491.151 265.901 491.151 265.901C510.314 281.08 569.789 355.394 569.789 355.394C572.944 359.182 576.202 363.519 579.496 368.237V368.72L572.132 363.204C572.132 363.204 539.016 397.958 489.006 359.892L486.649 358.134L486.466 357.804L481.722 366.053C481.722 366.053 497.966 401.599 490.148 419.349C404.343 334.808 306.987 605.405 214.725 549.721C188.132 536.549 183.505 500.323 191.967 478.843C194.786 470.323 199.156 463.166 204.001 456.873C208.269 451.693 212.983 447.092 218.319 444.045C221.884 441.935 225.405 439.686 229.153 438.133C234.489 436.133 240.038 435.078 245.579 434.089C252.943 432.946 260.548 434.221 268.015 436.17C273.893 438.104 279.807 440.089 285.451 443.525C288.943 445.246 292.281 447.62 295.663 449.788C297.346 450.829 298.891 452.44 300.684 452.99C255.886 417.298 204.69 417.313 182.664 470.059C181.463 472.814 180.863 476.008 179.992 479.011C179.121 483.553 178.111 488.191 178.469 493.114C178.799 498.55 179.362 504.088 180.929 509.319C189.193 543.245 227.382 573.413 266.961 558.644C320.829 543.509 361.352 478.982 401.473 445.723C409.591 438.126 417.738 431.723 425.739 426.683C425.79 426.88 425.849 427.085 425.907 427.291C424.714 428.419 423.543 429.591 422.401 430.8C419.649 433.73 417.028 436.895 414.642 440.397C413.705 441.774 412.805 443.21 411.963 444.719C411.846 444.946 411.714 445.173 411.568 445.356L410.652 447.166C410.491 447.642 410.265 448.06 410.074 448.506C409.181 450.558 408.405 452.755 407.944 455.158C407.615 456.887 407.454 458.741 407.607 460.638C407.739 462.279 408.12 463.935 408.749 465.444C409.218 466.579 409.818 467.627 410.484 468.565C410.814 469.041 411.18 469.466 411.531 469.905L412.021 470.455C413.251 471.737 414.576 472.806 415.967 473.524C416.055 473.568 416.135 473.576 416.216 473.561C418.844 472.887 421.479 472.22 424.107 471.532C424.399 471.466 424.678 471.356 424.978 471.319C426.339 471.334 427.664 471.099 428.953 470.733C433.323 469.48 437.231 466.513 440.306 462.345C440.584 461.986 440.826 461.569 441.126 461.232L441.221 461.041C440.679 461.253 440.116 461.371 439.603 461.671C439.391 461.781 439.171 461.876 439.01 462.081C437.722 463.422 436.28 464.484 434.765 465.327C432.51 466.55 430.014 467.209 427.423 466.872C426.171 466.711 424.905 466.316 423.668 465.664C422.767 465.136 421.896 464.455 421.069 463.671C419.715 462.374 418.478 460.741 417.585 458.785C416.838 457.158 416.362 455.327 416.208 453.517C416.128 452.631 416.121 451.759 416.164 450.895C416.172 448.851 416.56 446.939 417.043 445.136C417.658 442.924 418.492 440.887 419.451 439.005C420.769 436.411 422.335 434.104 424.026 432.016C424.458 431.466 424.948 430.997 425.417 430.507C425.79 430.133 426.164 429.767 426.544 429.4C429.736 439.041 438.11 454.667 459.162 457.268C479.131 455.078 506.567 425.415 532.816 401.899C531.564 403.848 530.43 405.906 529.368 408.045C527.926 410.99 526.638 414.082 525.613 417.386C525.211 418.69 524.859 420.023 524.559 421.401C524.523 421.606 524.479 421.811 524.405 421.994L524.12 423.62C524.105 424.031 524.032 424.411 523.988 424.807C523.783 426.624 523.703 428.521 523.915 430.507C524.076 431.935 524.391 433.415 524.962 434.858C525.452 436.104 526.155 437.305 527.004 438.331C527.641 439.107 528.358 439.781 529.105 440.345C529.478 440.631 529.859 440.88 530.239 441.144L530.752 441.459C532.011 442.162 533.307 442.682 534.566 442.902C534.639 442.917 534.712 442.902 534.771 442.865C536.659 441.708 538.555 440.558 540.436 439.393C540.648 439.276 540.839 439.115 541.066 439.019C542.127 438.704 543.108 438.206 544.023 437.613C547.127 435.591 549.469 432.338 550.867 428.353C550.999 428.009 551.087 427.62 551.241 427.291L551.27 427.122C550.904 427.415 550.487 427.642 550.157 428.001C550.018 428.14 549.872 428.265 549.791 428.463C549.11 429.818 548.239 430.99 547.258 432.008C545.794 433.503 544.008 434.616 541.908 434.968C540.89 435.144 539.807 435.137 538.694 434.924C537.867 434.734 537.025 434.404 536.191 433.994C534.829 433.305 533.468 432.331 532.304 431.019C531.33 429.928 530.525 428.617 529.969 427.239C529.698 426.573 529.478 425.884 529.31 425.203C528.827 423.606 528.673 422.023 528.622 420.507C528.57 418.639 528.732 416.851 529.032 415.152C529.442 412.815 530.108 410.646 530.927 408.602C531.132 408.067 531.403 407.584 531.652 407.093C532.362 405.738 533.131 404.426 533.929 403.159C535.29 400.998 536.762 398.947 538.343 397.027C553.173 384.222 567.425 374.185 579.481 373.123V375.555C559.9 400.251 550.684 427.54 546.453 449.92C543.452 449.078 540.509 448.052 537.677 446.77C528.373 443.745 518.959 439.408 508.763 440.257C505.315 440.309 501.772 440.748 498.141 442.507C495.601 443.349 493.047 445.173 490.543 447.254C480.529 456.103 475.793 468.99 474.483 482.389C437.466 469.349 400.551 479.627 379.074 520.835C377.486 523.773 376.541 527.201 375.304 530.403C374.528 533.165 373.701 535.963 373.137 538.835C354.867 547.406 336.618 555.948 318.508 564.204L210.158 564.182L200.078 570.49L60.0535 572.212C65.7778 571.296 70.5943 570.102 73.2149 568.856C111.733 554.292 116.257 548.424 136.108 555.413C127.039 549.333 114.88 549.662 103.505 550.3C100.314 550.476 96.9683 551.172 93.7109 551.589C93.5645 551.413 93.2717 551.062 93.1253 550.886C84.8903 553.208 77.3434 556.82 70.0234 560.417C57.0084 566.622 42.0244 572.343 27.6479 573.186C33.4966 574.138 41.3143 574.124 48.9198 573.523H297.8C283.519 579.875 269.347 585.977 255.359 591.706C232.074 602.16 208.203 610.782 184.86 617.42C185.189 611.2 184.581 594.629 163.105 586.292C135.867 578.644 91.2734 605.881 55.5883 615.735C24.9834 626.819 -0.27795 611.273 0.988411 577.977L0.15393 580.688C-0.74643 601.046 7.0933 616.555 20.9061 623.149C53.5973 646.225 125.172 646.284 206.388 621.061C229.9 615.259 257.782 605.112 288.269 592.504V592.49ZM671.611 721.242L672.738 702.466L677.101 694.408C680.863 703.265 677.723 705.946 671.618 721.25L671.611 721.242ZM436.99 420.998C437.202 420.858 437.422 420.712 437.641 420.573C438.586 419.957 439.552 419.386 440.518 418.829C459.865 410.675 477.506 411.767 490.506 424.873L475.566 438.704C458.525 454.484 437.949 436.807 436.99 420.998ZM532.055 510.139C531.44 510.579 530.84 511.048 530.247 511.524C527.758 513.546 525.386 515.817 523.102 518.227C520.35 521.157 517.73 524.322 515.343 527.824C514.406 529.201 513.506 530.637 512.664 532.146C512.547 532.373 512.415 532.6 512.269 532.784L511.354 534.586C511.193 535.062 510.966 535.479 510.776 535.926C509.883 537.978 509.107 540.175 508.645 542.578C508.316 544.307 508.155 546.161 508.309 548.058C508.44 549.699 508.821 551.355 509.451 552.864C509.919 553.999 510.519 555.047 511.185 555.985C511.515 556.461 511.881 556.886 512.232 557.325L512.723 557.875C513.952 559.157 515.277 560.226 516.668 560.944C516.756 560.988 516.836 560.996 516.917 560.981C519.545 560.307 522.18 559.64 524.808 558.952C525.101 558.886 525.379 558.776 525.679 558.739C527.041 558.754 528.366 558.519 529.654 558.153C534.024 556.9 537.933 553.933 541.007 549.765C541.285 549.406 541.527 548.988 541.827 548.651L541.922 548.461C541.38 548.673 540.817 548.791 540.304 549.091C540.092 549.201 539.873 549.296 539.712 549.501C538.423 550.842 536.981 551.904 535.466 552.747C533.211 553.97 530.715 554.629 528.124 554.292C526.872 554.131 525.606 553.736 524.369 553.084C523.468 552.556 522.597 551.875 521.77 551.091C520.416 549.794 519.179 548.161 518.286 546.205C517.539 544.578 517.063 542.747 516.91 540.937C516.829 540.051 516.822 539.179 516.866 538.315C516.873 536.271 517.261 534.359 517.744 532.557C518.359 530.344 519.194 528.307 520.152 526.425C521.47 523.831 523.037 521.524 524.727 519.436C525.159 518.886 525.65 518.417 526.118 517.927C527.443 516.593 528.805 515.333 530.203 514.132C532.823 511.875 535.546 509.832 538.372 508.015C539.719 507.143 541.102 506.344 542.493 505.561C542.764 505.414 543.042 505.268 543.32 505.128C543.701 504.982 544.089 504.835 544.47 504.689C546.885 521.26 550.999 535.274 555.977 547.076C549.572 552.893 543.174 558.644 536.798 564.197L449.405 564.182C477.711 543.794 507.101 522.344 532.047 510.117L532.055 510.139ZM630.187 303.446L630.172 257.82C646.869 272.406 647.396 290.113 630.187 303.446ZM630.172 246.092L630.158 200.026C637.258 205.697 643.575 214.561 648.194 227.147C655.433 244.685 657.622 266.465 649.475 283.527C651.817 275.22 649.519 266.45 642.038 258.135C639.776 254.311 635.611 250.275 630.172 246.092ZM618.753 311.248C619.492 310.933 620.217 310.618 620.934 310.296V336.266C620.049 336.904 619.17 337.541 618.299 338.186C606.104 327.702 596.376 317.292 588.726 307.131L588.712 231.857C599.794 237.945 610.533 244.048 619.544 250.253C620.012 250.531 620.473 250.81 620.927 251.088V309.285C619.17 310.201 617.304 311.08 615.327 311.93L618.746 311.248H618.753ZM620.934 239.586C611.616 233.484 600.321 227.125 588.719 220.649V198.129C600.848 190.386 615.744 189.668 628.437 198.737L620.934 205.33V239.579V239.586ZM579.459 215.484C577.776 214.546 576.099 213.601 574.43 212.656C575.96 210.261 577.644 208.041 579.459 206.019V215.484ZM569.848 221.543C573.025 223.301 576.238 225.052 579.459 226.81V293.278C563.033 265.168 562.411 239.835 569.848 221.55V221.543ZM184.04 617.632C125.538 634.145 70.4845 638.079 36.6661 626.614C37.3762 626.614 38.0862 626.614 38.8109 626.584C76.4064 631.844 184.267 553.992 184.04 617.632ZM697.56 373.877C690.84 370.266 684.552 366.61 678.967 362.925V310.816C689.442 307.578 696.587 306.237 697.553 306.062L697.567 373.885L697.56 373.877ZM669.7 356.207C653.801 343.431 647.989 330.193 662.995 316.406C665.301 315.497 667.541 314.662 669.7 313.893V356.207ZM660.038 317.593C654.248 323.483 647.652 335.116 657.988 354.713C660.894 359.189 664.876 363.431 669.7 367.504V379.548C664.942 375.343 661.978 372.757 661.978 372.757C649.973 363.914 639.439 355.702 630.209 348.156V332.779C640.398 326.406 650.683 321.424 660.038 317.585V317.593ZM678.967 374.486C684.582 378.31 690.862 381.987 697.56 385.584V404.705C691.023 398.661 684.56 392.815 678.967 387.804V374.486ZM490.733 419.928C492.607 417.437 497.878 409.965 498.405 404.082C498.405 404.082 495.748 384.896 494.672 377.811C497.468 380.808 510.527 390.082 531.55 386.874L493.142 422.434C492.336 421.569 491.539 420.741 490.733 419.935V419.928ZM591.332 656.489C590.725 656.577 590.117 656.679 589.517 656.789C589.275 656.833 589.034 656.877 588.799 656.928V593.42C597.379 600.79 603.696 603.684 603.696 603.684C616.806 610.636 629.835 615.486 642.484 618.365C626.563 645.544 601.705 654.049 591.332 656.489ZM588.748 360.332V327.768C597.43 336.655 605.284 343.065 608.725 345.761C599.699 353.35 594.912 358.779 594.912 358.779C593.448 360.141 592.028 361.526 590.644 362.918C590.029 362.075 589.392 361.211 588.741 360.332H588.748ZM592.591 365.628C595.717 361.782 597.708 359.768 597.708 359.768C601.778 355.211 606.104 351.013 610.576 347.167C613.256 349.914 616.886 353.196 620.942 356.676V413.027C609.837 392.852 600.504 378.134 600.504 378.134C598.681 374.661 595.973 370.42 592.591 365.628ZM630.238 430.499L630.216 364.405C643.795 375.423 657.988 385.943 657.988 385.943C662.043 389.32 665.952 392.654 669.708 395.943V438.902C660.023 439.188 648.809 440.06 635.831 441.708C633.993 437.92 632.119 434.17 630.238 430.499ZM638.4 447.1C649.519 444.528 659.994 442.69 669.708 441.73V463.4C662.9 465.568 656.034 468.609 649.116 472.345C646.064 464.133 642.367 455.569 638.4 447.1ZM653.179 484.345C658.691 481.385 664.225 478.887 669.708 476.865V564.241H665.008C666.684 524.916 653.201 484.411 653.201 484.411L653.179 484.345ZM664.32 573.494H669.708V608.306C664.562 608.467 659.364 608.27 654.174 607.706C659.899 597.625 662.98 585.779 664.32 573.486V573.494ZM648.15 606.885C639.542 605.464 631.014 603.002 622.816 599.449L623.979 581.559L628.73 573.486H656.056C654.804 586.526 651.978 597.552 648.143 606.878L648.15 606.885ZM656.231 564.234H630.282L630.26 499.524C634.645 496.037 639.103 492.85 643.604 489.971C653.398 520.088 655.69 551.941 656.231 564.234ZM639.278 478.074C636.277 479.949 633.268 481.942 630.253 484.03V458.785C635.34 469.275 638.429 476.015 638.429 476.015C638.715 476.697 639 477.385 639.278 478.074ZM620.942 440.074V443.832C619.075 444.126 617.179 444.433 615.239 444.756C617.194 443.173 619.031 441.474 620.722 439.649L620.942 440.074ZM619.88 437.986C614.076 442.565 606.968 445.876 599.545 448.221C595.988 449.078 592.408 449.994 588.807 450.953H588.763L588.748 382.266C599.948 400.111 611.03 420.668 619.873 437.979L619.88 437.986ZM588.763 461.722C599.875 457.884 610.628 454.47 620.942 451.576V490.762C611.235 498.066 601.463 506.249 591.676 514.835C591.017 513.231 590.088 511.414 588.77 509.56V461.715H588.763V461.722ZM588.77 512.608C589.363 513.641 589.927 514.74 590.454 515.912C589.89 516.403 589.334 516.901 588.77 517.399V512.608ZM588.77 534.652C599.714 524.542 610.408 514.901 620.934 506.601V564.219H588.77V534.644V534.652ZM588.77 573.494H620.927V598.592C609.237 593.252 598.264 585.677 588.77 575.699V573.486V573.494ZM579.459 564.219H579.298C576.355 560.109 573.64 555.692 571.166 550.974C573.947 548.41 576.714 545.846 579.459 543.289V564.219ZM579.459 525.721C574.796 529.934 570.133 534.19 565.471 538.447C563.018 532.154 560.969 525.399 559.373 518.183C557.924 512.41 556.796 506.755 555.947 501.224C565.112 499.202 573.098 499.561 579.459 503.106V525.721ZM579.459 501.37C573.947 498.301 566.188 496.103 555.23 496.052C554.315 488.674 553.905 481.532 553.905 474.638C562.587 471.231 571.114 468.015 579.466 465.012V501.377L579.459 501.37ZM579.459 452.448C575.602 452.909 571.905 453.173 568.53 453.29C566.349 453.393 564.285 452.895 562.111 452.953C559.893 452.653 557.66 452.316 555.428 451.92C559.3 423.305 569.863 400.28 579.459 384.397V452.448ZM679.011 607.625V573.501H697.589V581.662L698.651 583.266L699.288 573.501H741.575C727.47 592.805 704.309 604.643 679.019 607.625H679.011ZM747.329 564.256H699.888L700.627 552.937L706.93 542.234L707.003 470.653C725.142 471.773 740.389 479.898 749.254 495.663L746.919 489.436C734.065 473.766 720.721 464.982 707.01 461.466L707.032 443.583C714.879 445.649 721.599 448.99 727.016 453.788C733.648 461.642 737.015 466.257 737.015 466.257C759.751 506.806 759.905 540.109 747.329 564.263V564.256ZM720.245 445.95C716.892 444.36 712.588 442.836 707.032 441.605V431.628C712.061 436.88 716.468 441.693 720.245 445.957V445.95ZM697.567 421.95V439.986C692.253 439.312 686.097 438.887 678.982 438.814V404.236C685.753 410.419 691.953 416.36 697.567 421.95ZM620.934 339.013V340.435L620.027 339.665C620.327 339.446 620.627 339.233 620.934 339.013ZM564.592 564.219H556.555C558.341 562.637 560.12 561.047 561.891 559.443C562.777 561.091 563.685 562.681 564.592 564.219ZM543.481 496.894C509.641 503.561 469.044 535.355 429.392 564.19H382.69C382.361 559.538 382.507 554.879 383.078 550.373C422.013 532.41 462.156 513.582 500.872 496.704C503.565 498.345 506.179 500.213 508.828 501.971C510.651 503.136 512.269 504.916 514.26 505.553C510.19 502.176 506.04 499.084 501.845 496.279C515.841 490.183 529.646 484.352 543.13 478.916C542.727 489.619 543.401 496.205 543.401 496.205C543.423 496.44 543.452 496.66 543.481 496.887V496.894ZM544.177 464.88C525.291 471.517 505.988 479.129 486.415 487.378C483.062 485.744 479.695 484.293 476.328 483.033C477.506 473.261 480.778 464.792 489.613 457.993C505.593 445.679 522.861 457.495 536.476 460.631C538.701 461.349 541.41 461.92 544.477 462.323C544.367 463.188 544.272 464.045 544.177 464.88ZM678.975 441.071C685.607 440.8 691.821 441.012 697.567 441.752V459.847C691.441 459.312 685.241 459.737 678.982 460.982V441.071H678.975ZM678.975 473.869C685.328 472.132 691.558 471.056 697.56 470.675L697.575 564.241H678.989L678.967 473.869H678.975ZM416.443 573.494C407.783 579.625 399.204 585.464 390.801 590.71C387.551 585.428 385.333 579.567 384.015 573.494H416.45H416.443ZM374.06 564.182H352.964C359.471 561.223 366.037 558.219 372.647 555.179C372.867 557.838 373.233 560.468 373.848 563.04C373.913 563.421 373.987 563.801 374.06 564.182ZM332.27 573.494H376.658C379.133 580.343 382.756 586.915 387.338 592.893C347.43 620.189 305.596 620.519 289.953 591.772C303.597 586.109 317.754 579.962 332.263 573.494H332.27ZM436.434 573.494H525.906C485.119 607.42 445.254 630.196 408.844 607.457C404.562 605.259 400.866 602.534 397.703 599.413C409.723 592.197 422.855 583.156 436.434 573.494ZM547.244 585.406L561.73 600.328L547.683 615.955L533.197 601.032L547.244 585.406ZM388.319 531.67C388.502 531.274 388.685 530.886 388.875 530.505C392.777 521.406 398.318 513.81 404.321 507.158C409.591 501.692 415.308 496.865 421.603 493.722C425.82 491.546 429.999 489.216 434.377 487.641C440.591 485.634 446.967 484.645 453.335 483.722C460.297 482.865 467.309 483.788 474.212 485.429C474.073 487.825 474.036 490.235 474.095 492.63C445.832 504.835 417.087 518.19 388.312 531.67H388.319ZM475.742 491.927C475.793 489.868 475.881 487.854 476.042 485.883C476.899 486.103 477.755 486.33 478.611 486.564C480.376 487.173 482.147 487.788 483.911 488.433C481.195 489.583 478.472 490.748 475.742 491.92V491.927Z" fill="#232323" stroke="#232323" stroke-width="0.22" stroke-miterlimit="22.93"/>
</svg>
