<svg width="18" height="18" viewBox="0 0 18 18" fill="none" xmlns="http://www.w3.org/2000/svg">
<path d="M16.364 1.63672L1.63672 16.364" stroke="#FCCA87" stroke-width="2" stroke-linecap="round" stroke-linejoin="round"/>
<path d="M1.63672 1.63672L16.364 16.364" stroke="#FCCA87" stroke-width="2" stroke-linecap="round" stroke-linejoin="round"/>
</svg>
