<svg width="484" height="24" viewBox="0 0 484 24" fill="none" xmlns="http://www.w3.org/2000/svg">
<path d="M0 12H484" stroke="#FCCA87" stroke-width="2"/>
<circle cx="242" cy="12" r="11" stroke="#FCCA87" stroke-width="2"/>
</svg>
